module gitlab.com/elsaimo/labs/cloudnativecourse/lab5

go 1.21.6

require (
	github.com/golang/protobuf v1.5.4 // indirect
	golang.org/x/net v0.22.0 // indirect
	golang.org/x/sys v0.18.0 // indirect
	golang.org/x/text v0.14.0 // indirect
	google.golang.org/genproto/googleapis/rpc v0.0.0-20240308144416-29370a3891b7 // indirect
	google.golang.org/grpc v1.62.1 // indirect
	google.golang.org/protobuf v1.33.0 // indirect
)
